{
  "annotations": {
    "list": [
      {
        "builtIn": 1,
        "datasource": "-- Grafana --",
        "enable": true,
        "hide": true,
        "iconColor": "rgba(0, 211, 255, 1)",
        "name": "Annotations & Alerts",
        "target": {
          "limit": 100,
          "matchAny": false,
          "tags": [],
          "type": "dashboard"
        },
        "type": "dashboard"
      }
    ]
  },
  "description": "Комплексная система мониторинга и прогнозирования времени прохождения ТТН  ЕГАИС",
  "editable": true,
  "gnetId": null,
  "graphTooltip": 0,
  "id": 52,
  "iteration": 1638401346321,
  "links": [],
  "panels": [
    {
      "datasource": null,
      "fieldConfig": {
        "defaults": {
          "color": {
            "mode": "palette-classic"
          },
          "custom": {
            "axisLabel": "",
            "axisPlacement": "left",
            "axisSoftMax": 20,
            "barAlignment": 0,
            "drawStyle": "line",
            "fillOpacity": 21,
            "gradientMode": "none",
            "hideFrom": {
              "legend": false,
              "tooltip": false,
              "viz": false
            },
            "lineInterpolation": "linear",
            "lineWidth": 3,
            "pointSize": 5,
            "scaleDistribution": {
              "type": "linear"
            },
            "showPoints": "auto",
            "spanNulls": false,
            "stacking": {
              "group": "A",
              "mode": "none"
            },
            "thresholdsStyle": {
              "mode": "off"
            }
          },
          "mappings": [],
          "thresholds": {
            "mode": "absolute",
            "steps": [
              {
                "color": "green",
                "value": null
              },
              {
                "color": "red",
                "value": 80
              }
            ]
          },
          "unit": "none"
        },
        "overrides": [
          {
            "matcher": {
              "id": "byName",
              "options": "sborka_time"
            },
            "properties": [
              {
                "id": "color",
                "value": {
                  "fixedColor": "rgba(168, 168, 168, 1)",
                  "mode": "fixed"
                }
              },
              {
                "id": "displayName",
                "value": "Время сборки (по уровню 90%)  [c]"
              }
            ]
          },
          {
            "matcher": {
              "id": "byName",
              "options": "first_tick_time"
            },
            "properties": [
              {
                "id": "color",
                "value": {
                  "fixedColor": "super-light-blue",
                  "mode": "fixed"
                }
              }
            ]
          }
        ]
      },
      "gridPos": {
        "h": 8,
        "w": 17,
        "x": 0,
        "y": 0
      },
      "id": 18,
      "options": {
        "legend": {
          "calcs": [],
          "displayMode": "list",
          "placement": "bottom"
        },
        "tooltip": {
          "mode": "single"
        }
      },
      "targets": [
        {
          "format": "time_series",
          "group": [],
          "metricColumn": "none",
          "rawQuery": true,
          "rawSql": "SELECT\n  \"time\" AS \"time\",\n  sborka_time as \"sborka_time\"\n  -- first_tick_time as \"first_tick_time\"\nFROM histperiod1min\nWHERE\n  $__timeFilter(\"time\")\nUNION\n  \nSELECT\n  \"time\" AS \"time\",\n  sborka_time as \"sborka_time\"\n  -- first_tick_time as \"first_tick_time\"\nFROM monitor1min\nWHERE\n  $__timeFilter(\"time\")\nORDER BY 1",
          "refId": "A",
          "select": [
            [
              {
                "params": [
                  "sborka_time"
                ],
                "type": "column"
              }
            ]
          ],
          "table": "histperiod1min",
          "timeColumn": "\"time\"",
          "timeColumnType": "timestamptz",
          "where": [
            {
              "name": "$__timeFilter",
              "params": [],
              "type": "macro"
            }
          ]
        }
      ],
      "title": "Время сборки",
      "type": "timeseries"
    },
    {
      "datasource": "PostgreSQL-Local",
      "fieldConfig": {
        "defaults": {
          "color": {
            "mode": "thresholds"
          },
          "custom": {
            "align": "auto",
            "displayMode": "auto"
          },
          "mappings": [],
          "thresholds": {
            "mode": "absolute",
            "steps": [
              {
                "color": "green",
                "value": null
              },
              {
                "color": "red",
                "value": 80
              }
            ]
          }
        },
        "overrides": [
          {
            "matcher": {
              "id": "byName",
              "options": "owner_id"
            },
            "properties": [
              {
                "id": "custom.width",
                "value": 111
              }
            ]
          },
          {
            "matcher": {
              "id": "byName",
              "options": "Тип документа"
            },
            "properties": [
              {
                "id": "custom.width",
                "value": 97
              }
            ]
          },
          {
            "matcher": {
              "id": "byName",
              "options": "Тип  документа"
            },
            "properties": [
              {
                "id": "custom.width",
                "value": 84
              }
            ]
          },
          {
            "matcher": {
              "id": "byName",
              "options": "Время сборки"
            },
            "properties": [
              {
                "id": "custom.width",
                "value": 150
              }
            ]
          },
          {
            "matcher": {
              "id": "byName",
              "options": "transportid"
            },
            "properties": [
              {
                "id": "custom.width",
                "value": 90
              }
            ]
          }
        ]
      },
      "gridPos": {
        "h": 65,
        "w": 7,
        "x": 17,
        "y": 0
      },
      "id": 22,
      "options": {
        "showHeader": true,
        "sortBy": [
          {
            "desc": false,
            "displayName": "Тип  документа"
          }
        ]
      },
      "pluginVersion": "8.0.2",
      "targets": [
        {
          "format": "table",
          "group": [],
          "metricColumn": "none",
          "rawQuery": true,
          "rawSql": "SELECT \r\ntransportid as \"transportid\", \r\nin_owner as \"owner_id\",\r\n-- make_time(\r\n-- extract('hour' from time_b)::integer,\r\n-- extract('minutes' from time_b)::integer,\r\n-- extract('seconds' from time_b)\r\n-- ) \r\ntimezone('EST-2EDT'::text, time_b) as \"Время сборки\",\r\ndoctype as \"Тип  документа\"\r\n\tFROM public.monitor_wb_doc \r\n\t\r\n\t\r\n\twhere doctype like 'waybill_v%' and \r\n\t(\r\n\t\t(time_b<((select max(time_b)FROM public.monitor_wb_doc) -make_interval( 0,0,0, 0,0,16, .0)) \r\n\t\tand (ticket_last< '1990-01-01 03:00:00') or (ticket_last is null) )\r\n\t\tor \r\n\t\t(tick_full_time>960 and ticket_last > '1990-01-01 03:00:00')\r\n\t)\r\n\torder by 3\r\n\tlimit 200;",
          "refId": "A",
          "select": [
            [
              {
                "params": [
                  "wbbad_pc"
                ],
                "type": "column"
              }
            ]
          ],
          "table": "\"ForecastPeriod30MIN\"",
          "timeColumn": "time_a",
          "timeColumnType": "timestamp",
          "where": [
            {
              "name": "$__timeFilter",
              "params": [],
              "type": "macro"
            }
          ]
        }
      ],
      "title": "ТТН (200 шт), обрабатываются более 16 мин.",
      "type": "table"
    },
    {
      "datasource": null,
      "fieldConfig": {
        "defaults": {
          "color": {
            "mode": "palette-classic"
          },
          "custom": {
            "axisLabel": "",
            "axisPlacement": "left",
            "barAlignment": 0,
            "drawStyle": "line",
            "fillOpacity": 21,
            "gradientMode": "none",
            "hideFrom": {
              "legend": false,
              "tooltip": false,
              "viz": false
            },
            "lineInterpolation": "linear",
            "lineWidth": 3,
            "pointSize": 5,
            "scaleDistribution": {
              "type": "linear"
            },
            "showPoints": "auto",
            "spanNulls": false,
            "stacking": {
              "group": "A",
              "mode": "none"
            },
            "thresholdsStyle": {
              "mode": "off"
            }
          },
          "mappings": [],
          "thresholds": {
            "mode": "absolute",
            "steps": [
              {
                "color": "green",
                "value": null
              },
              {
                "color": "red",
                "value": 80
              }
            ]
          },
          "unit": "none"
        },
        "overrides": [
          {
            "matcher": {
              "id": "byName",
              "options": "first_tick_time"
            },
            "properties": [
              {
                "id": "color",
                "value": {
                  "fixedColor": "dark-green",
                  "mode": "fixed"
                }
              },
              {
                "id": "displayName",
                "value": "Время прошедшее после сборки до первого тикета (по уровню 90%)  [c]"
              }
            ]
          }
        ]
      },
      "gridPos": {
        "h": 8,
        "w": 17,
        "x": 0,
        "y": 8
      },
      "id": 19,
      "options": {
        "legend": {
          "calcs": [],
          "displayMode": "list",
          "placement": "bottom"
        },
        "tooltip": {
          "mode": "single"
        }
      },
      "targets": [
        {
          "format": "time_series",
          "group": [],
          "metricColumn": "none",
          "rawQuery": true,
          "rawSql": "SELECT\n  \"time\" AS \"time\",\n  first_tick_time\nFROM histperiod1min\nWHERE\n  $__timeFilter(\"time\")\nUNION\n  \nSELECT\n  \"time\" AS \"time\",\n  first_tick_time\nFROM monitor1min\nWHERE\n  $__timeFilter(\"time\")\nORDER BY 1",
          "refId": "A",
          "select": [
            [
              {
                "params": [
                  "sborka_time"
                ],
                "type": "column"
              }
            ]
          ],
          "table": "histperiod1min",
          "timeColumn": "\"time\"",
          "timeColumnType": "timestamptz",
          "where": [
            {
              "name": "$__timeFilter",
              "params": [],
              "type": "macro"
            }
          ]
        }
      ],
      "title": "Время с момента сборки до прихода первого тикета",
      "type": "timeseries"
    },
    {
      "datasource": null,
      "fieldConfig": {
        "defaults": {
          "color": {
            "mode": "palette-classic"
          },
          "custom": {
            "axisLabel": "",
            "axisPlacement": "auto",
            "barAlignment": -1,
            "drawStyle": "bars",
            "fillOpacity": 5,
            "gradientMode": "hue",
            "hideFrom": {
              "legend": false,
              "tooltip": false,
              "viz": false
            },
            "lineInterpolation": "linear",
            "lineWidth": 1,
            "pointSize": 5,
            "scaleDistribution": {
              "type": "linear"
            },
            "showPoints": "auto",
            "spanNulls": true,
            "stacking": {
              "group": "A",
              "mode": "normal"
            },
            "thresholdsStyle": {
              "mode": "off"
            }
          },
          "mappings": [],
          "thresholds": {
            "mode": "absolute",
            "steps": [
              {
                "color": "green",
                "value": null
              },
              {
                "color": "red",
                "value": 80
              }
            ]
          },
          "unit": "percent"
        },
        "overrides": [
          {
            "matcher": {
              "id": "byName",
              "options": "wbbad_pc"
            },
            "properties": [
              {
                "id": "color",
                "value": {
                  "fixedColor": "rgba(227, 227, 227, 1)",
                  "mode": "fixed"
                }
              },
              {
                "id": "displayName",
                "value": "некоррект. ТТН, шт."
              }
            ]
          },
          {
            "matcher": {
              "id": "byName",
              "options": "allDocs_cnt"
            },
            "properties": [
              {
                "id": "custom.drawStyle",
                "value": "line"
              },
              {
                "id": "custom.lineWidth",
                "value": 1
              },
              {
                "id": "custom.showPoints",
                "value": "always"
              },
              {
                "id": "custom.stacking",
                "value": {
                  "group": false,
                  "mode": "normal"
                }
              },
              {
                "id": "unit",
                "value": "short"
              },
              {
                "id": "custom.lineInterpolation",
                "value": "linear"
              },
              {
                "id": "displayName",
                "value": "вх. докум, шт."
              }
            ]
          },
          {
            "matcher": {
              "id": "byName",
              "options": "wb_cnt"
            },
            "properties": [
              {
                "id": "custom.drawStyle",
                "value": "line"
              },
              {
                "id": "custom.lineWidth",
                "value": 1
              },
              {
                "id": "custom.showPoints",
                "value": "always"
              },
              {
                "id": "custom.stacking",
                "value": {
                  "group": false,
                  "mode": "normal"
                }
              },
              {
                "id": "unit",
                "value": "short"
              },
              {
                "id": "custom.lineInterpolation",
                "value": "smooth"
              },
              {
                "id": "displayName",
                "value": "ТТН, шт."
              }
            ]
          },
          {
            "matcher": {
              "id": "byName",
              "options": "forecast"
            },
            "properties": [
              {
                "id": "color",
                "value": {
                  "fixedColor": "semi-dark-orange",
                  "mode": "fixed"
                }
              },
              {
                "id": "custom.fillOpacity",
                "value": 100
              },
              {
                "id": "custom.hideFrom",
                "value": {
                  "legend": true,
                  "tooltip": true,
                  "viz": false
                }
              }
            ]
          },
          {
            "matcher": {
              "id": "byName",
              "options": "notnormal"
            },
            "properties": [
              {
                "id": "color",
                "value": {
                  "fixedColor": "green",
                  "mode": "fixed"
                }
              },
              {
                "id": "custom.fillOpacity",
                "value": 100
              },
              {
                "id": "custom.hideFrom",
                "value": {
                  "legend": true,
                  "tooltip": true,
                  "viz": false
                }
              }
            ]
          },
          {
            "matcher": {
              "id": "byName",
              "options": "monitor"
            },
            "properties": [
              {
                "id": "custom.fillOpacity",
                "value": 100
              },
              {
                "id": "custom.hideFrom",
                "value": {
                  "legend": true,
                  "tooltip": true,
                  "viz": false
                }
              },
              {
                "id": "color",
                "value": {
                  "fixedColor": "rgba(75, 26, 99, 1)",
                  "mode": "fixed"
                }
              }
            ]
          },
          {
            "matcher": {
              "id": "byName",
              "options": "m0-1_pc"
            },
            "properties": [
              {
                "id": "displayName",
                "value": "до 1 мин, %"
              }
            ]
          },
          {
            "matcher": {
              "id": "byName",
              "options": "m1-15_pc"
            },
            "properties": [
              {
                "id": "displayName",
                "value": "до 15 мин,%"
              }
            ]
          },
          {
            "matcher": {
              "id": "byName",
              "options": "m15-60_pc"
            },
            "properties": [
              {
                "id": "displayName",
                "value": "до 60 мин, %"
              }
            ]
          },
          {
            "matcher": {
              "id": "byName",
              "options": "m60-max_pc"
            },
            "properties": [
              {
                "id": "displayName",
                "value": "больше 60 мин, %"
              }
            ]
          },
          {
            "matcher": {
              "id": "byName",
              "options": "tts_cnt"
            },
            "properties": [
              {
                "id": "color",
                "value": {
                  "fixedColor": "rgba(0, 0, 0, 1)",
                  "mode": "fixed"
                }
              },
              {
                "id": "custom.drawStyle",
                "value": "line"
              },
              {
                "id": "custom.lineWidth",
                "value": 1
              },
              {
                "id": "custom.showPoints",
                "value": "always"
              },
              {
                "id": "custom.stacking",
                "value": {
                  "group": "false",
                  "mode": "normal"
                }
              },
              {
                "id": "unit",
                "value": "short"
              },
              {
                "id": "displayName",
                "value": "TrasferToShop шт."
              },
              {
                "id": "custom.lineInterpolation",
                "value": "linear"
              }
            ]
          }
        ]
      },
      "gridPos": {
        "h": 15,
        "w": 17,
        "x": 0,
        "y": 16
      },
      "id": 16,
      "interval": "30m",
      "maxDataPoints": 25,
      "options": {
        "legend": {
          "calcs": [
            "last",
            "min",
            "max",
            "mean"
          ],
          "displayMode": "table",
          "placement": "bottom"
        },
        "tooltip": {
          "mode": "multi"
        }
      },
      "pluginVersion": "8.2.3",
      "targets": [
        {
          "format": "time_series",
          "group": [
            {
              "params": [
                "$__interval",
                "none"
              ],
              "type": "time"
            }
          ],
          "metricColumn": "none",
          "rawQuery": true,
          "rawSql": "SELECT\r\n  $__timeGroupAlias(\"time\",$gap_inter),\r\n  m0_1_pc_tb*100.0  AS \"m0-1_pc\",\r\n  m1_15_pc_tb*100.0  AS \"m1-15_pc\",\r\n  m15_60_pc_tb*100.0  AS \"m15-60_pc\",\r\n  m60_max_pc_tb*100.0  AS \"m60-max_pc\",\r\n  wbbad_pc_tb*100.0  AS \"wbbad_pc\",\r\n  allDocs_cnt_tb as \"allDocs_cnt\",\r\n  wb_cnt_tb as \"wb_cnt\",\r\n  tts_cnt_tb as \"tts_cnt\"\r\nFROM histperiod15min\r\nWHERE\r\n  $__timeFilter(\"time\")\r\nUNION \r\nSELECT\r\n  $__timeGroupAlias(\"time\",$gap_inter),\r\n  m0_1_pc_tb*100.0   AS \"m0-1_pc\",\r\n  m1_15_pc_tb*100.0  AS \"m1-15_pc\",\r\n  m15_60_pc_tb*100.0  AS \"m15-60_pc\",\r\n  m60_max_pc_tb*100.0  AS \"m60-max_pc\",\r\n  wbbad_pc_tb*100.0  AS \"wbbad_pc\",\r\n  allDocs_cnt_tb as \"allDocs_cnt\",\r\n  wb_cnt_tb as \"wb_cnt\",\r\n  tts_cnt_tb as \"tts_cnt\"\r\nFROM monitor15min\r\nWHERE\r\n\"time\" > (select max(\"time\") from public.histperiod30min) and $__timeFilter(\"time\") and\r\n  $__timeFilter(\"time\")\r\n  UNION \r\nSELECT\r\n    $__timeGroupAlias(\"time\",$gap_inter),\r\n  m0_1_pc_tb*100.0 AS \"m0-1_pc\",\r\n  m1_15_pc_tb*100.0 AS \"m1-15_pc\",\r\n  m15_60_pc_tb*100.0 AS \"m15-60_pc\",\r\n  m60_max_pc_tb*100.0 AS \"m60-max_pc\",\r\n  wbbad_pc_tb*100.0 AS \"wbbad_pc\",\r\n  NULL as \"allDocs_cnt\",\r\n  NULL as \"wb_cnt\",\r\n  NULL as \"tts_cnt\"\r\nFROM forecastperiod30MIN\r\nWHERE\r\n  \"time\" > (select max(\"time\") from public.monitor30min) and $__timeFilter(\"time\")\r\nORDER BY 1",
          "refId": "A",
          "select": [
            [
              {
                "params": [
                  "\"allDocs_cnt\""
                ],
                "type": "column"
              },
              {
                "params": [
                  "sum"
                ],
                "type": "aggregate"
              },
              {
                "params": [
                  "\"allDocs_cnt\""
                ],
                "type": "alias"
              }
            ]
          ],
          "table": "\"HistPeriod30MIN\"",
          "timeColumn": "time_a",
          "timeColumnType": "timestamp",
          "where": [
            {
              "name": "$__timeFilter",
              "params": [],
              "type": "macro"
            }
          ]
        },
        {
          "format": "time_series",
          "group": [],
          "hide": false,
          "metricColumn": "none",
          "rawQuery": true,
          "rawSql": "SELECT\r\n  $__timeGroupAlias(\"time\",$gap_inter),\r\n  1 as monitor\r\nFROM monitor15min\r\nWHERE\r\n  $__timeFilter(\"time\")\r\nORDER BY 1",
          "refId": "B",
          "select": [
            [
              {
                "params": [
                  "wbbad_pc"
                ],
                "type": "column"
              }
            ]
          ],
          "table": "\"ForecastPeriod30MIN\"",
          "timeColumn": "time_a",
          "timeColumnType": "timestamp",
          "where": [
            {
              "name": "$__timeFilter",
              "params": [],
              "type": "macro"
            }
          ]
        },
        {
          "format": "time_series",
          "group": [],
          "hide": false,
          "metricColumn": "none",
          "rawQuery": true,
          "rawSql": "SELECT\n  $__timeGroupAlias(\"time\",$gap_inter),\n  1 as forecast\nFROM forecastperiod30min\nWHERE\n  time > (select max(time) from public.monitor30min) and\n  $__timeFilter(\"time\")\nORDER BY 1",
          "refId": "C",
          "select": [
            [
              {
                "params": [
                  "wbbad_pc"
                ],
                "type": "column"
              }
            ]
          ],
          "table": "\"ForecastPeriod30MIN\"",
          "timeColumn": "time_a",
          "timeColumnType": "timestamp",
          "where": [
            {
              "name": "$__timeFilter",
              "params": [],
              "type": "macro"
            }
          ]
        },
        {
          "format": "time_series",
          "group": [],
          "hide": false,
          "metricColumn": "none",
          "rawQuery": true,
          "rawSql": "SELECT\n  $__timeGroupAlias(\"time\",$gap_inter),\n  0.3 as notNormal\nFROM histperiod15min\nWHERE\n $__timeFilter(\"time\")\nORDER BY 1",
          "refId": "D",
          "select": [
            [
              {
                "params": [
                  "wbbad_pc"
                ],
                "type": "column"
              }
            ]
          ],
          "table": "\"ForecastPeriod30MIN\"",
          "timeColumn": "time_a",
          "timeColumnType": "timestamp",
          "where": [
            {
              "name": "$__timeFilter",
              "params": [],
              "type": "macro"
            }
          ]
        }
      ],
      "timeFrom": null,
      "timeShift": null,
      "title": "Комплексная система мониторинга и прогнозирования времени прохождения ТТН  ЕГАИС",
      "type": "timeseries"
    },
    {
      "datasource": null,
      "fieldConfig": {
        "defaults": {
          "color": {
            "mode": "palette-classic"
          },
          "custom": {
            "axisLabel": "",
            "axisPlacement": "auto",
            "barAlignment": -1,
            "drawStyle": "bars",
            "fillOpacity": 5,
            "gradientMode": "hue",
            "hideFrom": {
              "legend": false,
              "tooltip": false,
              "viz": false
            },
            "lineInterpolation": "linear",
            "lineWidth": 1,
            "pointSize": 5,
            "scaleDistribution": {
              "type": "linear"
            },
            "showPoints": "auto",
            "spanNulls": true,
            "stacking": {
              "group": "A",
              "mode": "normal"
            },
            "thresholdsStyle": {
              "mode": "off"
            }
          },
          "mappings": [],
          "thresholds": {
            "mode": "absolute",
            "steps": [
              {
                "color": "green",
                "value": null
              },
              {
                "color": "red",
                "value": 80
              }
            ]
          },
          "unit": "percent"
        },
        "overrides": [
          {
            "matcher": {
              "id": "byName",
              "options": "wbbad_pc"
            },
            "properties": [
              {
                "id": "color",
                "value": {
                  "fixedColor": "rgba(227, 227, 227, 1)",
                  "mode": "fixed"
                }
              },
              {
                "id": "displayName",
                "value": "некоррект. ТТН, шт."
              }
            ]
          },
          {
            "matcher": {
              "id": "byName",
              "options": "allDocs_cnt"
            },
            "properties": [
              {
                "id": "custom.drawStyle",
                "value": "line"
              },
              {
                "id": "custom.lineWidth",
                "value": 1
              },
              {
                "id": "custom.showPoints",
                "value": "always"
              },
              {
                "id": "custom.stacking",
                "value": {
                  "group": false,
                  "mode": "normal"
                }
              },
              {
                "id": "unit",
                "value": "short"
              },
              {
                "id": "custom.lineInterpolation",
                "value": "linear"
              },
              {
                "id": "displayName",
                "value": "вх. докум, шт."
              }
            ]
          },
          {
            "matcher": {
              "id": "byName",
              "options": "wb_cnt"
            },
            "properties": [
              {
                "id": "custom.drawStyle",
                "value": "line"
              },
              {
                "id": "custom.lineWidth",
                "value": 1
              },
              {
                "id": "custom.showPoints",
                "value": "always"
              },
              {
                "id": "custom.stacking",
                "value": {
                  "group": false,
                  "mode": "normal"
                }
              },
              {
                "id": "unit",
                "value": "short"
              },
              {
                "id": "custom.lineInterpolation",
                "value": "smooth"
              },
              {
                "id": "displayName",
                "value": "ТТН, шт."
              }
            ]
          },
          {
            "matcher": {
              "id": "byName",
              "options": "notnormal"
            },
            "properties": [
              {
                "id": "color",
                "value": {
                  "fixedColor": "green",
                  "mode": "fixed"
                }
              },
              {
                "id": "custom.fillOpacity",
                "value": 100
              },
              {
                "id": "custom.hideFrom",
                "value": {
                  "legend": true,
                  "tooltip": true,
                  "viz": false
                }
              }
            ]
          },
          {
            "matcher": {
              "id": "byName",
              "options": "monitor"
            },
            "properties": [
              {
                "id": "custom.fillOpacity",
                "value": 100
              },
              {
                "id": "custom.hideFrom",
                "value": {
                  "legend": true,
                  "tooltip": true,
                  "viz": false
                }
              },
              {
                "id": "color",
                "value": {
                  "fixedColor": "rgba(75, 26, 99, 1)",
                  "mode": "fixed"
                }
              }
            ]
          },
          {
            "matcher": {
              "id": "byName",
              "options": "m0-1_pc"
            },
            "properties": [
              {
                "id": "displayName",
                "value": "до 1 мин, %"
              }
            ]
          },
          {
            "matcher": {
              "id": "byName",
              "options": "m1-15_pc"
            },
            "properties": [
              {
                "id": "displayName",
                "value": "до 15 мин,%"
              }
            ]
          },
          {
            "matcher": {
              "id": "byName",
              "options": "m15-60_pc"
            },
            "properties": [
              {
                "id": "displayName",
                "value": "до 60 мин, %"
              }
            ]
          },
          {
            "matcher": {
              "id": "byName",
              "options": "m60-max_pc"
            },
            "properties": [
              {
                "id": "displayName",
                "value": "больше 60 мин, %"
              }
            ]
          },
          {
            "matcher": {
              "id": "byName",
              "options": "tts_cnt"
            },
            "properties": [
              {
                "id": "color",
                "value": {
                  "fixedColor": "rgba(0, 0, 0, 1)",
                  "mode": "fixed"
                }
              },
              {
                "id": "custom.drawStyle",
                "value": "line"
              },
              {
                "id": "custom.lineWidth",
                "value": 1
              },
              {
                "id": "custom.showPoints",
                "value": "always"
              },
              {
                "id": "custom.stacking",
                "value": {
                  "group": "false",
                  "mode": "normal"
                }
              },
              {
                "id": "unit",
                "value": "short"
              },
              {
                "id": "displayName",
                "value": "TrasferToShop шт."
              },
              {
                "id": "custom.lineInterpolation",
                "value": "linear"
              }
            ]
          }
        ]
      },
      "gridPos": {
        "h": 15,
        "w": 17,
        "x": 0,
        "y": 31
      },
      "id": 20,
      "interval": "30m",
      "maxDataPoints": 25,
      "options": {
        "legend": {
          "calcs": [
            "last",
            "min",
            "max",
            "mean"
          ],
          "displayMode": "table",
          "placement": "bottom"
        },
        "tooltip": {
          "mode": "multi"
        }
      },
      "pluginVersion": "8.2.3",
      "targets": [
        {
          "format": "time_series",
          "group": [
            {
              "params": [
                "$__interval",
                "none"
              ],
              "type": "time"
            }
          ],
          "metricColumn": "none",
          "rawQuery": true,
          "rawSql": "SELECT\r\n  \"time\",\r\n  m0_1_pc_tb*100.0  AS \"m0-1_pc\",\r\n  m1_15_pc_tb*100.0  AS \"m1-15_pc\",\r\n  m15_60_pc_tb*100.0  AS \"m15-60_pc\",\r\n  m60_max_pc_tb*100.0  AS \"m60-max_pc\",\r\n  wbbad_pc_tb*100.0  AS \"wbbad_pc\",\r\n  allDocs_cnt_tb as \"allDocs_cnt\",\r\n  wb_cnt_tb as \"wb_cnt\",\r\n  tts_cnt_tb as \"tts_cnt\"\r\nFROM $gap_tables\r\nWHERE\r\n  $__timeFilter(\"time\")\r\nUNION \r\nSELECT\r\n  \"time\",\r\n  m0_1_pc_tb*100.0   AS \"m0-1_pc\",\r\n  m1_15_pc_tb*100.0  AS \"m1-15_pc\",\r\n  m15_60_pc_tb*100.0  AS \"m15-60_pc\",\r\n  m60_max_pc_tb*100.0  AS \"m60-max_pc\",\r\n  wbbad_pc_tb*100.0  AS \"wbbad_pc\",\r\n  allDocs_cnt_tb as \"allDocs_cnt\",\r\n  wb_cnt_tb as \"wb_cnt\",\r\n  tts_cnt_tb as \"tts_cnt\"\r\nFROM $gap__tables\r\nWHERE\r\n\"time\" > (select max(\"time\") from public.histperiod30min) and $__timeFilter(\"time\") and\r\n  $__timeFilter(\"time\")\r\nORDER BY 1",
          "refId": "A",
          "select": [
            [
              {
                "params": [
                  "\"allDocs_cnt\""
                ],
                "type": "column"
              },
              {
                "params": [
                  "sum"
                ],
                "type": "aggregate"
              },
              {
                "params": [
                  "\"allDocs_cnt\""
                ],
                "type": "alias"
              }
            ]
          ],
          "table": "\"HistPeriod30MIN\"",
          "timeColumn": "time_a",
          "timeColumnType": "timestamp",
          "where": [
            {
              "name": "$__timeFilter",
              "params": [],
              "type": "macro"
            }
          ]
        },
        {
          "format": "time_series",
          "group": [],
          "hide": false,
          "metricColumn": "none",
          "rawQuery": true,
          "rawSql": "SELECT\r\n  \"time\",\r\n  1 as monitor\r\nFROM $gap__tables\r\nWHERE\r\n  $__timeFilter(\"time\")\r\nORDER BY 1",
          "refId": "B",
          "select": [
            [
              {
                "params": [
                  "wbbad_pc"
                ],
                "type": "column"
              }
            ]
          ],
          "table": "\"ForecastPeriod30MIN\"",
          "timeColumn": "time_a",
          "timeColumnType": "timestamp",
          "where": [
            {
              "name": "$__timeFilter",
              "params": [],
              "type": "macro"
            }
          ]
        },
        {
          "format": "time_series",
          "group": [],
          "hide": false,
          "metricColumn": "none",
          "rawQuery": true,
          "rawSql": "SELECT\n  \"time\",\n  0.3 as notNormal\nFROM $gap_tables\nWHERE\n $__timeFilter(\"time\")\nORDER BY 1",
          "refId": "D",
          "select": [
            [
              {
                "params": [
                  "wbbad_pc"
                ],
                "type": "column"
              }
            ]
          ],
          "table": "\"ForecastPeriod30MIN\"",
          "timeColumn": "time_a",
          "timeColumnType": "timestamp",
          "where": [
            {
              "name": "$__timeFilter",
              "params": [],
              "type": "macro"
            }
          ]
        }
      ],
      "timeFrom": null,
      "timeShift": null,
      "title": "Мониторинг  времени прохождения ТТН  ЕГАИС ",
      "type": "timeseries"
    },
    {
      "datasource": null,
      "fieldConfig": {
        "defaults": {
          "color": {
            "mode": "palette-classic"
          },
          "custom": {
            "axisLabel": "",
            "axisPlacement": "left",
            "barAlignment": 0,
            "drawStyle": "line",
            "fillOpacity": 0,
            "gradientMode": "none",
            "hideFrom": {
              "legend": false,
              "tooltip": false,
              "viz": false
            },
            "lineInterpolation": "stepBefore",
            "lineWidth": 1,
            "pointSize": 5,
            "scaleDistribution": {
              "type": "linear"
            },
            "showPoints": "auto",
            "spanNulls": false,
            "stacking": {
              "group": "A",
              "mode": "none"
            },
            "thresholdsStyle": {
              "mode": "off"
            }
          },
          "mappings": [],
          "thresholds": {
            "mode": "absolute",
            "steps": [
              {
                "color": "green",
                "value": null
              },
              {
                "color": "red",
                "value": 80
              }
            ]
          },
          "unit": "percent"
        },
        "overrides": [
          {
            "matcher": {
              "id": "byName",
              "options": "abs delta"
            },
            "properties": [
              {
                "id": "color",
                "value": {
                  "fixedColor": "purple",
                  "mode": "fixed"
                }
              },
              {
                "id": "custom.axisPlacement",
                "value": "right"
              },
              {
                "id": "unit",
                "value": "percent"
              },
              {
                "id": "custom.scaleDistribution",
                "value": {
                  "type": "linear"
                }
              },
              {
                "id": "custom.drawStyle",
                "value": "bars"
              },
              {
                "id": "custom.barAlignment",
                "value": -1
              },
              {
                "id": "custom.fillOpacity",
                "value": 22
              },
              {
                "id": "displayName",
                "value": "модуль разности \"до 1 мин, %\""
              }
            ]
          },
          {
            "matcher": {
              "id": "byRegexp",
              "options": "hist|forecast"
            },
            "properties": [
              {
                "id": "custom.drawStyle",
                "value": "line"
              },
              {
                "id": "custom.lineWidth",
                "value": 2
              },
              {
                "id": "custom.axisPlacement",
                "value": "right"
              },
              {
                "id": "unit",
                "value": "percent"
              }
            ]
          },
          {
            "matcher": {
              "id": "byName",
              "options": "hist"
            },
            "properties": [
              {
                "id": "displayName",
                "value": "статистика \"до 1 мин, %\""
              }
            ]
          },
          {
            "matcher": {
              "id": "byName",
              "options": "forecast"
            },
            "properties": [
              {
                "id": "displayName",
                "value": "прогноз \"до 1 мин, %\""
              }
            ]
          }
        ]
      },
      "gridPos": {
        "h": 11,
        "w": 17,
        "x": 0,
        "y": 46
      },
      "id": 10,
      "options": {
        "legend": {
          "calcs": [
            "min",
            "max",
            "mean",
            "lastNotNull"
          ],
          "displayMode": "table",
          "placement": "bottom"
        },
        "tooltip": {
          "mode": "multi"
        }
      },
      "targets": [
        {
          "format": "time_series",
          "group": [
            {
              "params": [
                "$gap_inter",
                "none"
              ],
              "type": "time"
            }
          ],
          "metricColumn": "none",
          "rawQuery": true,
          "rawSql": "\nSELECT\n  $__timeGroupAlias(AA.time,$gap_inter),\n  avg(\"m0_1_pc\") AS \"abs delta\"\nFROM (SELECT  a.time AS time,\n    100*abs(a.wbbad_pc_tb - b.wbbad_pc) AS wbbad_pc,\n    100*abs(a.\"m0_1_pc_tb\" - b.\"m0_1_pc\") AS \"m0_1_pc\",\n    100*abs(a.\"m1_15_pc_tb\" - b.\"m1_15_pc\") AS \"m1_15_pc\",\n    100*abs(a.\"m15_60_pc_tb\" - b.\"m15_60_pc\") AS \"m15_60_pc\",\n    100*abs(a.\"m60_max_pc_tb\" - b.\"m60_max_pc\") AS \"m60_max_pc\"\n   FROM forecastperiod30min a Right JOIN  histperiod30min b ON a.time = b.time) as AA\nWHERE\n  $__timeFilter(AA.time)\n  GROUP BY 1\n  ORDER BY 1",
          "refId": "A",
          "select": [
            [
              {
                "params": [
                  "\"m0-1_pc\""
                ],
                "type": "column"
              },
              {
                "params": [
                  "avg"
                ],
                "type": "aggregate"
              },
              {
                "params": [
                  "abs delta"
                ],
                "type": "alias"
              }
            ]
          ],
          "table": "diff_h_f",
          "timeColumn": "time_a",
          "timeColumnType": "timestamptz",
          "where": [
            {
              "name": "$__timeFilter",
              "params": [],
              "type": "macro"
            }
          ]
        },
        {
          "format": "time_series",
          "group": [
            {
              "params": [
                "$gap_inter",
                "none"
              ],
              "type": "time"
            }
          ],
          "hide": false,
          "metricColumn": "none",
          "rawQuery": true,
          "rawSql": "SELECT\n  $__timeGroupAlias(\"time\",$gap_inter),\n  100*avg(\"m0_1_pc\") AS \"hist\"\nFROM histperiod30min\nWHERE\n  $__timeFilter(\"time\")\nGROUP BY 1\nORDER BY 1",
          "refId": "B",
          "select": [
            [
              {
                "params": [
                  "\"m0-1_pc\""
                ],
                "type": "column"
              },
              {
                "params": [
                  "avg"
                ],
                "type": "aggregate"
              },
              {
                "params": [
                  "hist"
                ],
                "type": "alias"
              }
            ]
          ],
          "table": "hist",
          "timeColumn": "time_a",
          "timeColumnType": "timestamptz",
          "where": [
            {
              "name": "$__timeFilter",
              "params": [],
              "type": "macro"
            }
          ]
        },
        {
          "format": "time_series",
          "group": [
            {
              "params": [
                "$gap_inter",
                "none"
              ],
              "type": "time"
            }
          ],
          "hide": false,
          "metricColumn": "none",
          "rawQuery": true,
          "rawSql": "\nSELECT\n  $__timeGroupAlias(time,$gap_inter),\n  100*avg(\"m0_1_pc_tb\") AS \"forecast\"\nFROM forecastperiod30min\nWHERE\n  $__timeFilter(time)\nGROUP BY 1\nORDER BY 1",
          "refId": "C",
          "select": [
            [
              {
                "params": [
                  "\"m0-1_pc\""
                ],
                "type": "column"
              },
              {
                "params": [
                  "avg"
                ],
                "type": "aggregate"
              },
              {
                "params": [
                  "forecast"
                ],
                "type": "alias"
              }
            ]
          ],
          "table": "forecast",
          "timeColumn": "time_a",
          "timeColumnType": "timestamptz",
          "where": [
            {
              "name": "$__timeFilter",
              "params": [],
              "type": "macro"
            }
          ]
        }
      ],
      "title": "Оценка точности прогноза по бизнес-метрике \"до 1 мин., %\" (критерий по модулю)",
      "type": "timeseries"
    },
    {
      "datasource": null,
      "fieldConfig": {
        "defaults": {
          "color": {
            "mode": "palette-classic"
          },
          "custom": {
            "axisLabel": "",
            "axisPlacement": "auto",
            "barAlignment": 0,
            "drawStyle": "line",
            "fillOpacity": 0,
            "gradientMode": "none",
            "hideFrom": {
              "legend": false,
              "tooltip": false,
              "viz": false
            },
            "lineInterpolation": "stepBefore",
            "lineWidth": 1,
            "pointSize": 5,
            "scaleDistribution": {
              "type": "linear"
            },
            "showPoints": "auto",
            "spanNulls": false,
            "stacking": {
              "group": "A",
              "mode": "none"
            },
            "thresholdsStyle": {
              "mode": "off"
            }
          },
          "mappings": [],
          "thresholds": {
            "mode": "absolute",
            "steps": [
              {
                "color": "green",
                "value": null
              },
              {
                "color": "red",
                "value": 80
              }
            ]
          },
          "unit": "s"
        },
        "overrides": [
          {
            "matcher": {
              "id": "byName",
              "options": " dt_fore"
            },
            "properties": [
              {
                "id": "custom.axisPlacement",
                "value": "right"
              },
              {
                "id": "unit"
              },
              {
                "id": "custom.axisLabel",
                "value": "сек"
              },
              {
                "id": "displayName",
                "value": "длительность прогнозирования, сек"
              }
            ]
          },
          {
            "matcher": {
              "id": "byName",
              "options": " dt_full"
            },
            "properties": [
              {
                "id": "displayName",
                "value": "длительность выполнения расчетов полная, сек"
              }
            ]
          }
        ]
      },
      "gridPos": {
        "h": 8,
        "w": 17,
        "x": 0,
        "y": 57
      },
      "id": 12,
      "options": {
        "legend": {
          "calcs": [
            "min",
            "max",
            "mean",
            "lastNotNull"
          ],
          "displayMode": "table",
          "placement": "bottom"
        },
        "tooltip": {
          "mode": "single"
        }
      },
      "pluginVersion": "8.2.3",
      "targets": [
        {
          "format": "time_series",
          "group": [
            {
              "params": [
                "$gap_inter",
                "none"
              ],
              "type": "time"
            }
          ],
          "metricColumn": "none",
          "rawQuery": true,
          "rawSql": "SELECT\n  $__timeGroupAlias(AA.time,$gap_inter),\n  avg(AA.dt_full) AS \" dt_full\",\n  avg(AA.dt_fore) AS \" dt_fore\"\nFROM \n(SELECT timezone('EST-2EDT'::text, \"histMonForeCast_log\".period) AS time,\n    \"histMonForeCast_log\".calc_hist_start_time,\n    \"histMonForeCast_log\".calc_fore_start_time,\n    \"histMonForeCast_log\".calc_end_time,\n    date_part('epoch'::text, \"histMonForeCast_log\".calc_fore_start_time - \"histMonForeCast_log\".calc_hist_start_time) AS dt_hist,\n    date_part('epoch'::text, \"histMonForeCast_log\".calc_end_time - \"histMonForeCast_log\".calc_fore_start_time) AS dt_fore,\n    date_part('epoch'::text, \"histMonForeCast_log\".calc_end_time - \"histMonForeCast_log\".calc_hist_start_time) AS dt_full\n   FROM \"histMonForeCast_log\") as AA\nWHERE\n  $__timeFilter(AA.time)\nGROUP BY 1\nORDER BY 1",
          "refId": "A",
          "select": [
            [
              {
                "params": [
                  " dt_full"
                ],
                "type": "column"
              },
              {
                "params": [
                  "avg"
                ],
                "type": "aggregate"
              },
              {
                "params": [
                  " dt_full"
                ],
                "type": "alias"
              }
            ],
            [
              {
                "params": [
                  "dt_fore"
                ],
                "type": "column"
              },
              {
                "params": [
                  "avg"
                ],
                "type": "aggregate"
              },
              {
                "params": [
                  " dt_fore"
                ],
                "type": "alias"
              }
            ]
          ],
          "table": "log",
          "timeColumn": "time_a",
          "timeColumnType": "timestamptz",
          "where": [
            {
              "name": "$__timeFilter",
              "params": [],
              "type": "macro"
            }
          ]
        }
      ],
      "title": "Длительность выполнения расчетов при работе алгоритма",
      "type": "timeseries"
    }
  ],
  "refresh": false,
  "schemaVersion": 30,
  "style": "dark",
  "tags": [],
  "templating": {
    "list": [
      {
        "auto": false,
        "auto_count": 30,
        "auto_min": "10s",
        "current": {
          "selected": false,
          "text": "15m",
          "value": "15m"
        },
        "description": "",
        "error": null,
        "hide": 0,
        "label": "Временной интервал комплексного графика",
        "name": "gap_inter",
        "options": [
          {
            "selected": true,
            "text": "15m",
            "value": "15m"
          },
          {
            "selected": false,
            "text": "30m",
            "value": "30m"
          },
          {
            "selected": false,
            "text": "1h",
            "value": "1h"
          },
          {
            "selected": false,
            "text": "6h",
            "value": "6h"
          },
          {
            "selected": false,
            "text": "8h",
            "value": "8h"
          },
          {
            "selected": false,
            "text": "12h",
            "value": "12h"
          }
        ],
        "query": "15m,30m,1h,6h,8h,12h",
        "queryValue": "",
        "refresh": 2,
        "skipUrlSync": false,
        "type": "interval"
      },
      {
        "auto": false,
        "auto_count": 30,
        "auto_min": "10s",
        "current": {
          "selected": false,
          "text": "histperiod1min",
          "value": "histperiod1min"
        },
        "description": null,
        "error": null,
        "hide": 0,
        "label": "Таблица данных статистики",
        "name": "gap_tables",
        "options": [
          {
            "selected": true,
            "text": "histperiod1min",
            "value": "histperiod1min"
          },
          {
            "selected": false,
            "text": "histperiod5min",
            "value": "histperiod5min"
          },
          {
            "selected": false,
            "text": "histperiod15min",
            "value": "histperiod15min"
          },
          {
            "selected": false,
            "text": "histperiod30min",
            "value": "histperiod30min"
          }
        ],
        "query": "histperiod1min, histperiod5min, histperiod15min, histperiod30min",
        "queryValue": "",
        "refresh": 2,
        "skipUrlSync": false,
        "type": "interval"
      },
      {
        "auto": false,
        "auto_count": 30,
        "auto_min": "10s",
        "current": {
          "selected": false,
          "text": "monitor1min",
          "value": "monitor1min"
        },
        "description": null,
        "error": null,
        "hide": 0,
        "label": "Таблица данных мониторинга",
        "name": "gap__tables",
        "options": [
          {
            "selected": true,
            "text": "monitor1min",
            "value": "monitor1min"
          },
          {
            "selected": false,
            "text": "monitor5min",
            "value": "monitor5min"
          },
          {
            "selected": false,
            "text": "monitor15min",
            "value": "monitor15min"
          },
          {
            "selected": false,
            "text": "monitor30min",
            "value": "monitor30min"
          }
        ],
        "query": "monitor1min,  monitor5min, monitor15min, monitor30min",
        "queryValue": "",
        "refresh": 2,
        "skipUrlSync": false,
        "type": "interval"
      }
    ]
  },
  "time": {
    "from": "now-12h",
    "to": "now"
  },
  "timepicker": {
    "refresh_intervals": [
      "5s",
      "10s",
      "30s",
      "1m",
      "5m",
      "15m",
      "30m",
      "1h",
      "2h",
      "1d"
    ]
  },
  "timezone": "",
  "title": "model__2",
  "uid": "1V0bQApnk",
  "version": 2
}